<?xml version="1.0" encoding="utf-8"?>
<!-- Generator: Adobe Illustrator 21.0.0, SVG Export Plug-In . SVG Version: 6.00 Build 0)  -->
<svg version="1.1" id="Layer_1" xmlns="http://www.w3.org/2000/svg" xmlns:xlink="http://www.w3.org/1999/xlink" x="0px" y="0px"
	 viewBox="0 0 500 500" style="enable-background:new 0 0 500 500;" xml:space="preserve">
<style type="text/css">
	.st0{fill-rule:evenodd;clip-rule:evenodd;}
</style>
<path class="st0" d="M8.8,361.1c-11.7-11.7-11.7-30.8,0-42.4l4.2-4.2c11.7-11.7,30.8-11.7,42.4,0l104.9,104.9l285.9-285.9
	c11.7-11.7,30.8-11.7,42.4,0l4.2,4.2c11.7,11.7,11.7,30.8,0,42.4L181.8,491.2c-11.7,11.7-30.8,11.7-42.4,0l-4.2-4.2
	c-1.2-1.2-2.3-2.5-3.2-3.9L8.8,361.1z"/>
</svg>
